IUCN RLE bibliography – citation-plot
…
layout(fig,
       title = "Citations per publication",
       xaxis = list(title="Issued (date)"),
       yaxis = list(title="Journal / Repository / Publisher")
       )

Warning: `line.width` does not currently support multiple values.

## Intro en https://poldham.github.io/abs/crossref.html
ref.info$data %>% count(subject, sort = TRUE)

# A tibble: 37 × 2
   subject                                                                     n
   <chr>                                                                   <int>
 1 Nature and Landscape Conservation,Ecology,Ecology, Evolution, Behavior…    22
 2 Ecology,Ecology, Evolution, Behavior and Systematics                       17
 3 <NA>                                                                       17
 4 Ecology,Ecology, Evolution, Behavior and Systematics,General Decision …     9
 5 Multidisciplinary                                                           8
 6 Nature and Landscape Conservation,Ecology, Evolution, Behavior and Sys…     8
 7 Nature and Landscape Conservation,Ecology,Global and Planetary Change       3
 8 Ecology, Evolution, Behavior and Systematics                                2
 9 General Environmental Science,Ecology,Environmental Chemistry,Global a…     2
10 Management, Monitoring, Policy and Law,Aquatic Science,Oceanography         2
# ℹ 27 more rows
…
